{
    "name": "ThresholdSensor",
    "keywords": "threshold sensor",
    "description": "Meldet erst nach einer konfigurierten Zeitspanne, ob ein Eingang 'high' ist.",
    "include": "ThresholdSensor",
    "authors": {
        "name": "Harald Kaiser"
    },
    "downloadUrl": "https://bitbucket.org/orrelios/libraries/get/develop.zip",
    "frameworks": "arduino",
    "platforms": [
        "atmelavr",
        "espressif"
    ]
}